…
## Grouping:

Adds an invisible layer on selected variables

``` r
weather_df |>
  group_by(name, month) |>
  summarize(n_obs = n()) # counts how many observations are in each group
```

    ## `summarise()` has grouped output by 'name'. You can override using the
    ## `.groups` argument.

    ## # A tibble: 72 × 3
    ## # Groups:   name [3]
    ##    name           month      n_obs
    ##    <chr>          <date>     <int>
    ##  1 CentralPark_NY 2021-01-01    31
    ##  2 CentralPark_NY 2021-02-01    28
    ##  3 CentralPark_NY 2021-03-01    31
    ##  4 CentralPark_NY 2021-04-01    30
    ##  5 CentralPark_NY 2021-05-01    31
    ##  6 CentralPark_NY 2021-06-01    30
    ##  7 CentralPark_NY 2021-07-01    31
    ##  8 CentralPark_NY 2021-08-01    31
    ##  9 CentralPark_NY 2021-09-01    30
    ## 10 CentralPark_NY 2021-10-01    31
    ## # ℹ 62 more rows
…
``` r
weather_df |>
  count(name, month) |>
  pivot_wider(
    names_from = name,
    values_from = n
  )
```

    ## # A tibble: 24 × 4
    ##    month      CentralPark_NY Molokai_HI Waterhole_WA
    ##    <date>              <int>      <int>        <int>
    ##  1 2021-01-01             31         31           31
    ##  2 2021-02-01             28         28           28
    ##  3 2021-03-01             31         31           31
    ##  4 2021-04-01             30         30           30
    ##  5 2021-05-01             31         31           31
    ##  6 2021-06-01             30         30           30
    ##  7 2021-07-01             31         31           31
    ##  8 2021-08-01             31         31           31
    ##  9 2021-09-01             30         30           30
    ## 10 2021-10-01             31         31           31
    ## # ℹ 14 more rows
## General Summaries:

``` r
weather_df |>
  group_by(name, month) |>
  summarize(
    mean_tmax = mean(tmax, na.rm = TRUE), #removing NA
    median_tmax = median(tmax, na.rm = TRUE)
  )
```

    ## `summarise()` has grouped output by 'name'. You can override using the
    ## `.groups` argument.

    ## # A tibble: 72 × 4
    ## # Groups:   name [3]
    ##    name           month      mean_tmax median_tmax
    ##    <chr>          <date>         <dbl>       <dbl>
    ##  1 CentralPark_NY 2021-01-01      4.27         5  
    ##  2 CentralPark_NY 2021-02-01      3.87         2.8
    ##  3 CentralPark_NY 2021-03-01     12.3         12.2
    ##  4 CentralPark_NY 2021-04-01     17.6         18.0
    ##  5 CentralPark_NY 2021-05-01     22.1         22.2
    ##  6 CentralPark_NY 2021-06-01     28.1         27.8
    ##  7 CentralPark_NY 2021-07-01     28.4         28.3
    ##  8 CentralPark_NY 2021-08-01     28.8         28.3
    ##  9 CentralPark_NY 2021-09-01     24.8         24.4
    ## 10 CentralPark_NY 2021-10-01     19.9         20.6
    ## # ℹ 62 more rows
…
